{
    "testEnvironment": "node",
    "moduleDirectories": [
        "../src/server",
        "node_modules"
    ],
    "moduleFileExtensions": [
        "ts",
        "tsx",
        "js",
        "json"
    ],
    "transform": {
        "^.+\\.tsx?$": "ts-jest"
    },
    "testRegex": "/tests/.*\\.(e2e-test|e2e-spec).(ts|tsx|js)$",
    "collectCoverageFrom" : ["src/**/*.{js,jsx,tsx,ts}", "!**/node_modules/**", "!**/vendor/**"],
    "coverageReporters": ["json", "lcov"]
}
