{
  "watch": [
    "src"
  ],
  "env": {
    "NODE_ENV": "development"
  },
  "verbose": true,
  "ext": "ts",
  "ignore": [
    "src/**/*.spec.ts"
  ],
  "exec": "node --inspect=9224 -r ts-node/register -r tsconfig-paths/register src/main.ts"
}